{
  "bindings": {
    "/actions/buggy": {
      "chords": [],
      "poses": [],
      "haptics": [],
      "sources": [
        {
          "path": "/user/hand/left/input/trigger",
          "mode": "trigger",
          "parameters": {},
          "inputs": {
            "pull": {
              "output": "/actions/buggy/in/throttle"
            }
          }
        },
        {
          "path": "/user/hand/right/input/trigger",
          "mode": "trigger",
          "parameters": {},
          "inputs": {
            "pull": {
              "output": "/actions/buggy/in/throttle"
            }
          }
        },
        {
          "path": "/user/hand/left/input/joystick",
          "mode": "joystick",
          "parameters": {},
          "inputs": {
            "position": {
              "output": "/actions/buggy/in/steering"
            }
          }
        },
        {
          "path": "/user/hand/right/input/joystick",
          "mode": "joystick",
          "parameters": {},
          "inputs": {
            "position": {
              "output": "/actions/buggy/in/steering"
            }
          }
        },
        {
          "path": "/user/hand/left/input/trackpad",
          "mode": "button",
          "parameters": {},
          "inputs": {
            "click": {
              "output": "/actions/buggy/in/reset"
            }
          }
        },
        {
          "path": "/user/hand/right/input/trackpad",
          "mode": "button",
          "parameters": {},
          "inputs": {
            "click": {
              "output": "/actions/buggy/in/reset"
            }
          }
        },
        {
          "path": "/user/hand/left/input/trackpad",
          "mode": "button",
          "parameters": {},
          "inputs": {
            "click": {
              "output": "/actions/buggy/in/brake"
            }
          }
        },
        {
          "path": "/user/hand/right/input/trackpad",
          "mode": "button",
          "parameters": {},
          "inputs": {
            "click": {
              "output": "/actions/buggy/in/brake"
            }
          }
        }
      ],
      "skeleton": []
    },
    "/actions/default": {
      "chords": [],
      "poses": [
        {
          "output": "/actions/default/in/pose",
          "path": "/user/hand/left/pose/raw"
        },
        {
          "output": "/actions/default/in/pose",
          "path": "/user/hand/right/pose/raw"
        }
      ],
      "haptics": [
        {
          "output": "/actions/default/out/haptic",
          "path": "/user/hand/left/output/haptic"
        },
        {
          "output": "/actions/default/out/haptic",
          "path": "/user/hand/right/output/haptic"
        }
      ],
      "sources": [
        {
          "path": "/user/hand/left/input/trigger",
          "mode": "button",
          "parameters": {},
          "inputs": {
            "click": {
              "output": "/actions/default/in/interactui"
            }
          }
        },
        {
          "path": "/user/hand/right/input/trigger",
          "mode": "button",
          "parameters": {},
          "inputs": {
            "click": {
              "output": "/actions/default/in/interactui"
            }
          }
        },
        {
          "path": "/user/hand/left/input/trigger",
          "mode": "button",
          "parameters": {
            "click_activate_threshold": "0.95",
            "click_deactivate_threshold": "0.9"
          },
          "inputs": {
            "click": {
              "output": "/actions/default/in/grabpinch"
            }
          }
        },
        {
          "path": "/user/hand/right/input/trigger",
          "mode": "button",
          "parameters": {
            "click_activate_threshold": "0.95",
            "click_deactivate_threshold": "0.9"
          },
          "inputs": {
            "click": {
              "output": "/actions/default/in/grabpinch"
            }
          }
        },
        {
          "path": "/user/hand/left/input/grip",
          "mode": "button",
          "parameters": {},
          "inputs": {
            "click": {
              "output": "/actions/default/in/grabgrip"
            }
          }
        },
        {
          "path": "/user/hand/right/input/grip",
          "mode": "button",
          "parameters": {},
          "inputs": {
            "click": {
              "output": "/actions/default/in/grabgrip"
            }
          }
        },
        {
          "path": "/user/hand/left/input/trigger",
          "mode": "trigger",
          "parameters": {},
          "inputs": {
            "pull": {
              "output": "/actions/default/in/squeeze"
            }
          }
        },
        {
          "path": "/user/hand/right/input/trigger",
          "mode": "trigger",
          "parameters": {},
          "inputs": {
            "pull": {
              "output": "/actions/default/in/squeeze"
            }
          }
        },
        {
          "path": "/user/hand/left/input/trackpad",
          "mode": "button",
          "parameters": {},
          "inputs": {
            "click": {
              "output": "/actions/default/in/teleport"
            }
          }
        },
        {
          "path": "/user/hand/right/input/trackpad",
          "mode": "button",
          "parameters": {},
          "inputs": {
            "click": {
              "output": "/actions/default/in/teleport"
            }
          }
        },
        {
          "path": "/user/hand/left/input/joystick",
          "mode": "dpad",
          "parameters": {
            "deadzone_pct": "25",
            "overlap_pct": "30",
            "sub_mode": "touch"
          },
          "inputs": {
            "north": {
              "output": "/actions/default/in/teleport"
            }
          }
        },
        {
          "path": "/user/hand/right/input/joystick",
          "mode": "dpad",
          "parameters": {
            "deadzone_pct": "25",
            "overlap_pct": "30",
            "sub_mode": "touch"
          },
          "inputs": {
            "north": {
              "output": "/actions/default/in/teleport"
            }
          }
        },
        {
          "path": "/user/hand/left/input/joystick",
          "mode": "dpad",
          "parameters": {
            "deadzone_pct": "85",
            "overlap_pct": "0",
            "sub_mode": "touch"
          },
          "inputs": {
            "east": {
              "output": "/actions/default/in/snapturnright"
            },
            "west": {
              "output": "/actions/default/in/snapturnleft"
            }
          }
        },
        {
          "path": "/user/hand/right/input/joystick",
          "mode": "dpad",
          "parameters": {
            "deadzone_pct": "85",
            "overlap_pct": "0",
            "sub_mode": "touch"
          },
          "inputs": {
            "east": {
              "output": "/actions/default/in/snapturnright"
            },
            "west": {
              "output": "/actions/default/in/snapturnleft"
            }
          }
        }
      ],
      "skeleton": []
    },
    "/actions/platformer": {
      "chords": [],
      "poses": [],
      "haptics": [],
      "sources": [
        {
          "path": "/user/hand/left/input/trigger",
          "mode": "button",
          "parameters": {},
          "inputs": {
            "click": {
              "output": "/actions/platformer/in/jump"
            }
          }
        },
        {
          "path": "/user/hand/right/input/trigger",
          "mode": "button",
          "parameters": {},
          "inputs": {
            "click": {
              "output": "/actions/platformer/in/jump"
            }
          }
        },
        {
          "path": "/user/hand/left/input/joystick",
          "mode": "joystick",
          "parameters": {},
          "inputs": {
            "position": {
              "output": "/actions/platformer/in/move"
            }
          }
        },
        {
          "path": "/user/hand/right/input/joystick",
          "mode": "joystick",
          "parameters": {},
          "inputs": {
            "position": {
              "output": "/actions/platformer/in/move"
            }
          }
        }
      ],
      "skeleton": []
    },
    "/actions/htc_viu": {
      "chords": [],
      "poses": [],
      "haptics": [],
      "sources": [],
      "skeleton": []
    }
  },
  "controller_type": "holographic_controller",
  "description": "",
  "name": "Default bindings for Windows Mixed Reality Controllers"
}