%YAML 1.1
%TAG !u! tag:unity3d.com,2011:
--- !u!1 &8957564778822323041
GameObject:
  m_ObjectHideFlags: 0
  m_CorrespondingSourceObject: {fileID: 0}
  m_PrefabInstance: {fileID: 0}
  m_PrefabAsset: {fileID: 0}
  serializedVersion: 6
  m_Component:
  - component: {fileID: 706447742552943197}
  - component: {fileID: 1890872540133060843}
  m_Layer: 0
  m_Name: MovementObserverGenerator
  m_TagString: Untagged
  m_Icon: {fileID: 0}
  m_NavMeshLayer: 0
  m_StaticEditorFlags: 0
  m_IsActive: 1
--- !u!4 &706447742552943197
Transform:
  m_ObjectHideFlags: 0
  m_CorrespondingSourceObject: {fileID: 0}
  m_PrefabInstance: {fileID: 0}
  m_PrefabAsset: {fileID: 0}
  m_GameObject: {fileID: 8957564778822323041}
  m_LocalRotation: {x: 0, y: 0, z: 0, w: 1}
  m_LocalPosition: {x: 0, y: 0, z: 0}
  m_LocalScale: {x: 1, y: 1, z: 1}
  m_Children: []
  m_Father: {fileID: 0}
  m_RootOrder: 0
  m_LocalEulerAnglesHint: {x: 0, y: 0, z: 0}
--- !u!114 &1890872540133060843
MonoBehaviour:
  m_ObjectHideFlags: 0
  m_CorrespondingSourceObject: {fileID: 0}
  m_PrefabInstance: {fileID: 0}
  m_PrefabAsset: {fileID: 0}
  m_GameObject: {fileID: 8957564778822323041}
  m_Enabled: 1
  m_EditorHideFlags: 0
  m_Script: {fileID: 11500000, guid: 68c38ebb31e2bc449a2fcea69bc89b6b, type: 3}
  m_Name: 
  m_EditorClassIdentifier: 
  movementObserverPrefab: {fileID: 963236989731289273, guid: 7a4e1b84c924eab4c905c97adec8d4d1,
    type: 3}
  killPlayerPrefab: {fileID: 6406187244477277448, guid: 24d02deb2894c6841b70779d128968b5,
    type: 3}
  target: {fileID: 0}
  spawnInterval: 1
  trackingDuration: 5
  minDistance: 20
